…
The table shows the mean and standard deviation of the proportion of “Excellent” responses across locations in NY State for the years 2002, 2006, and 2010. We can see, the proportion of “Excellent” responses was highest in 2002, and were approximately equal in 2006 and 2010. The standard deviation of the proportion of “Excellent” responses across locations in NY State declined from 2002 to 2010, which means there were less variability with respect to the proportion of “Excellent” responses in years 2006 and 2010 than in year 2002.

d.For each year and state, compute the average proportion in each response category (taking the average across locations in a state). Make a five-panel plot that shows, for each response category separately, the distribution of these state-level averages over time.

``` r
response_average = 
  brfss_data %>% 
  group_by(year, state, response) %>%
  summarize(average = mean(data_value, na.rm = TRUE)) 
response_average
```

    ## # A tibble: 2,215 x 4
    ## # Groups:   year, state [?]
    ##     year state response  average
    ##    <int> <chr> <fct>       <dbl>
    ##  1  2002 AK    Excellent    27.9
    ##  2  2002 AK    Very good    33.7
    ##  3  2002 AK    Good         23.8
    ##  4  2002 AK    Fair          8.6
    ##  5  2002 AK    Poor          5.9
    ##  6  2002 AL    Excellent    18.5
    ##  7  2002 AL    Very good    30.9
    ##  8  2002 AL    Good         32.7
    ##  9  2002 AL    Fair         12.1
    ## 10  2002 AL    Poor          5.9
    ## # ... with 2,205 more rows
…
a.Do some data cleaning. Create separate variables for year, month, and day. Ensure observations for temperature, precipitation, and snowfall are given in reasonable units. For snowfall, what are the most commonly observed values? Why?

``` r
ny_clean = ny_noaa %>% 
  separate(date, into = c("year", "month", "day"), sep = "-") %>% 
  mutate(prcp = prcp / 10, tmin = as.numeric(tmin) / 10, 
         tmax = as.numeric(tmax) / 10) 

ny_clean %>% 
  group_by(snow) %>% 
  summarise(n_observed = n()) %>% 
  arrange(desc(n_observed))
```

    ## # A tibble: 282 x 2
    ##     snow n_observed
    ##    <int>      <int>
    ##  1     0    2008508
    ##  2    NA     381221
    ##  3    25      31022
    ##  4    13      23095
    ##  5    51      18274
    ##  6    76      10173
    ##  7     8       9962
    ##  8     5       9748
    ##  9    38       9197
    ## 10     3       8790
    ## # ... with 272 more rows
…
